Machine Learning
…
Matriz de confusión

Ahora nos corresponde observar que tan bien predice el modelo. Para eso guardamos los resultados del mejor modelo y predecimos \hat{y}_i

log_pred <- 
  log_res %>%
  collect_predictions()
log_pred

# A tibble: 15,480 × 7
   id    .pred_class  .row .pred_debajo .pred_encima price_category .config     
   <chr> <fct>       <int>        <dbl>        <dbl> <fct>          <chr>       
 1 Fold1 debajo         11        0.790      0.210   debajo         Preprocesso…
 2 Fold1 debajo         12        0.807      0.193   debajo         Preprocesso…
 3 Fold1 debajo         25        0.985      0.0154  debajo         Preprocesso…
 4 Fold1 encima         27        0.469      0.531   debajo         Preprocesso…
 5 Fold1 debajo         33        0.994      0.00567 debajo         Preprocesso…
 6 Fold1 debajo         35        0.970      0.0300  debajo         Preprocesso…
 7 Fold1 debajo         43        0.867      0.133   debajo         Preprocesso…
 8 Fold1 debajo         51        0.543      0.457   debajo         Preprocesso…
 9 Fold1 debajo         53        0.565      0.435   debajo         Preprocesso…
10 Fold1 encima         60        0.492      0.508   debajo         Preprocesso…
# ℹ 15,470 more rows
…
